[
    {
      "_id":201,
      "AccountNumber":1234567891,      
      "AccountType":"Checking",
      "debitCard":"1234 1234 1234 1234",      
      "creditCard":"3456 3456 3456 3456",
      "loans":"Personal Loan"
      
    },

    {
      "_id":202 ,
      "AccountNumber":1234567892,      
      "AccountType":"Savings",
      "debitCard":"1234 4321 1234 4321",
      "creditCard":"false",
      "loans":""
      
    },

    {
      "_id":203,
      "AccountNumber":1234567893,      
      "AccountType":"Checking",
      "debitCard":"4321 1234 1234 1234",      
      "creditCard":"3456 3456 3456 3457",
      "loans":"Housing Loan"
      
    },
    {
      "_id":204,
      "AccountNumber": 1234567894,      
      "AccountType":"Savings",
      "debitCard":"1234 1234 1234 1239",      
      "creditCard":"false",
      "loans":""
      
    }

  ]