[
    {
      "_id":100,
      "SSN":5678,
      "firstName": "Pratyusha",
      "lastName": "Pusapati",
      "phoneNumber":9848022338,
      "email": "S534642@nwmissouri.edu",
      "annualIncome":1250000 , 
      "address": "1121 North College Drive, Missouri, MO",
      
      "zip": 64468,
      "country": "USA"
    },
    {
        "_id":101 ,
        "SSN":900909,
        "firstName": "Rudra Teja",
        "lastName": "Potturi",
        "phoneNumber":9848022337,
        "email": "S534804@nwmissouri.edu",
         "annualIncome":120000 ,
        "address": "1121 North College Drive,Missouri, MO",
        
        "zip": 64468,
        "country": "USA"
    },
    {
        "_id":102,
        "SSN":88888,
        "firstName": "Lavanya Reddy",
        "lastName": "Uppula",
        "phoneNumber":9490498237,
        "email": "S534574@nwmissouri.edu",
        "annualIncome":130000 ,
        "address": "1121 North College Drive,Missouri, MO",
        
        "zip": 64468,
        "country": "USA"
    },
    {
        "_id":103,
        "SSN":null,
        "firstName": "Sai Nikhil",
        "lastName": "Pippara",
        "phoneNumber":9567890543,
        "email": "S534547@nwmissouri.edu",
        "annualIncome":140000 ,  
        "address": "1121 North College Drive,Missouri, MO",
        
        "zip": 64468,
        "country": "USA"
    }
  ]